Long description unexpected in testsuite-XXXXXX/test/dists/sid/main/i18n/Translation-de (line 46)
p: 1, m: 1, s: 0, l: 0
File testsuite-XXXXXX/test/dists/sid/main/i18n/Translation-de has an invalid format
status: 1
