Failed to compare the SHA256SUMS, they are not identical!
--- /tmp/ddtp_dinstall_tmpdir.XXXXXX/SHA256SUMS.sorted
+++ /tmp/ddtp_dinstall_tmpdir.XXXXXX/SHA256SUMS.new.sorted
@@ -1 +1,2 @@
 7cad6032819cd954993be6169fc0c0fa4b5ce981024dc2e0fa2cbab7648b2690  dists/sid/main/i18n/Translation-de
+f907102459b5e28851c0a86c369ef3e6ad85401bf9816386a541279bd3d5fed8  dists/sid/main/i18n/Translation-fr
status: 1
